{"meta":{"current_page":1,"first_page_url":"https:\/\/www.robotevents.com\/api\/v2\/events\/48473\/divisions\/2\/rankings?page=1","from":1,"last_page":3,"last_page_url":"https:\/\/www.robotevents.com\/api\/v2\/events\/48473\/divisions\/2\/rankings?page=3","next_page_url":"https:\/\/www.robotevents.com\/api\/v2\/events\/48473\/divisions\/2\/rankings?page=2","path":"https:\/\/www.robotevents.com\/api\/v2\/events\/48473\/divisions\/2\/rankings","per_page":15,"prev_page_url":null,"to":15,"total":40},"data":[{"id":15585355,"event":{"id":48473,"name":"2023 CREATE U.S. Open Robotics Championship - VRC HIGH SCHOOL","code":"RE-VRC-22-8473"},"division":{"id":2,"name":"Blue Division","code":null},"rank":40,"team":{"id":69047,"name":"9784C","code":null},"wins":0,"losses":1,"ties":0,"wp":0,"ap":0,"sp":0,"high_score":0,"average_points":0,"total_points":0},{"id":15585354,"event":{"id":48473,"name":"2023 CREATE U.S. Open Robotics Championship - VRC HIGH SCHOOL","code":"RE-VRC-22-8473"},"division":{"id":2,"name":"Blue Division","code":null},"rank":39,"team":{"id":66087,"name":"6844E","code":null},"wins":0,"losses":1,"ties":0,"wp":0,"ap":0,"sp":0,"high_score":0,"average_points":0,"total_points":0},{"id":15585353,"event":{"id":48473,"name":"2023 CREATE U.S. Open Robotics Championship - VRC HIGH SCHOOL","code":"RE-VRC-22-8473"},"division":{"id":2,"name":"Blue Division","code":null},"rank":38,"team":{"id":76174,"name":"44366A","code":null},"wins":0,"losses":1,"ties":0,"wp":0,"ap":0,"sp":92,"high_score":92,"average_points":92,"total_points":92},{"id":15585352,"event":{"id":48473,"name":"2023 CREATE U.S. Open Robotics Championship - VRC HIGH SCHOOL","code":"RE-VRC-22-8473"},"division":{"id":2,"name":"Blue Division","code":null},"rank":37,"team":{"id":78820,"name":"84260A","code":null},"wins":0,"losses":2,"ties":0,"wp":0,"ap":0,"sp":206,"high_score":114,"average_points":103,"total_points":206},{"id":15585351,"event":{"id":48473,"name":"2023 CREATE U.S. Open Robotics Championship - VRC HIGH SCHOOL","code":"RE-VRC-22-8473"},"division":{"id":2,"name":"Blue Division","code":null},"rank":36,"team":{"id":50005,"name":"53E","code":null},"wins":0,"losses":2,"ties":0,"wp":0,"ap":0,"sp":216,"high_score":120,"average_points":108,"total_points":216},{"id":15585350,"event":{"id":48473,"name":"2023 CREATE U.S. Open Robotics Championship - VRC HIGH SCHOOL","code":"RE-VRC-22-8473"},"division":{"id":2,"name":"Blue Division","code":null},"rank":35,"team":{"id":85387,"name":"1970Y","code":null},"wins":0,"losses":1,"ties":0,"wp":0,"ap":0,"sp":109,"high_score":109,"average_points":109,"total_points":109},{"id":15585349,"event":{"id":48473,"name":"2023 CREATE U.S. Open Robotics Championship - VRC HIGH SCHOOL","code":"RE-VRC-22-8473"},"division":{"id":2,"name":"Blue Division","code":null},"rank":34,"team":{"id":61698,"name":"9065C","code":null},"wins":0,"losses":1,"ties":0,"wp":0,"ap":0,"sp":109,"high_score":109,"average_points":109,"total_points":109},{"id":15585348,"event":{"id":48473,"name":"2023 CREATE U.S. Open Robotics Championship - VRC HIGH SCHOOL","code":"RE-VRC-22-8473"},"division":{"id":2,"name":"Blue Division","code":null},"rank":33,"team":{"id":70565,"name":"99707K","code":null},"wins":0,"losses":1,"ties":0,"wp":0,"ap":0,"sp":120,"high_score":120,"average_points":120,"total_points":120},{"id":15585347,"event":{"id":48473,"name":"2023 CREATE U.S. Open Robotics Championship - VRC HIGH SCHOOL","code":"RE-VRC-22-8473"},"division":{"id":2,"name":"Blue Division","code":null},"rank":32,"team":{"id":63239,"name":"400B","code":null},"wins":0,"losses":1,"ties":0,"wp":0,"ap":0,"sp":121,"high_score":121,"average_points":121,"total_points":121},{"id":15585346,"event":{"id":48473,"name":"2023 CREATE U.S. Open Robotics Championship - VRC HIGH SCHOOL","code":"RE-VRC-22-8473"},"division":{"id":2,"name":"Blue Division","code":null},"rank":31,"team":{"id":130641,"name":"77788X","code":null},"wins":0,"losses":1,"ties":0,"wp":0,"ap":0,"sp":121,"high_score":121,"average_points":121,"total_points":121},{"id":15585345,"event":{"id":48473,"name":"2023 CREATE U.S. Open Robotics Championship - VRC HIGH SCHOOL","code":"RE-VRC-22-8473"},"division":{"id":2,"name":"Blue Division","code":null},"rank":30,"team":{"id":129846,"name":"3304A","code":null},"wins":0,"losses":1,"ties":0,"wp":0,"ap":0,"sp":143,"high_score":143,"average_points":143,"total_points":143},{"id":15585344,"event":{"id":48473,"name":"2023 CREATE U.S. Open Robotics Championship - VRC HIGH SCHOOL","code":"RE-VRC-22-8473"},"division":{"id":2,"name":"Blue Division","code":null},"rank":29,"team":{"id":45724,"name":"7458F","code":null},"wins":0,"losses":2,"ties":0,"wp":0,"ap":10,"sp":175,"high_score":114,"average_points":87.5,"total_points":175},{"id":15585343,"event":{"id":48473,"name":"2023 CREATE U.S. Open Robotics Championship - VRC HIGH SCHOOL","code":"RE-VRC-22-8473"},"division":{"id":2,"name":"Blue Division","code":null},"rank":28,"team":{"id":85099,"name":"91917A","code":null},"wins":0,"losses":2,"ties":0,"wp":0,"ap":10,"sp":215,"high_score":119,"average_points":107.5,"total_points":215},{"id":15585342,"event":{"id":48473,"name":"2023 CREATE U.S. Open Robotics Championship - VRC HIGH SCHOOL","code":"RE-VRC-22-8473"},"division":{"id":2,"name":"Blue Division","code":null},"rank":27,"team":{"id":96695,"name":"8349K","code":null},"wins":0,"losses":1,"ties":0,"wp":0,"ap":10,"sp":61,"high_score":61,"average_points":61,"total_points":61},{"id":15585341,"event":{"id":48473,"name":"2023 CREATE U.S. Open Robotics Championship - VRC HIGH SCHOOL","code":"RE-VRC-22-8473"},"division":{"id":2,"name":"Blue Division","code":null},"rank":26,"team":{"id":94245,"name":"77000X","code":null},"wins":0,"losses":1,"ties":0,"wp":0,"ap":10,"sp":91,"high_score":91,"average_points":91,"total_points":91}]}