{"meta":{"current_page":1,"first_page_url":"https:\/\/www.robotevents.com\/api\/v2\/events\/48473\/divisions\/4\/rankings?page=1","from":1,"last_page":3,"last_page_url":"https:\/\/www.robotevents.com\/api\/v2\/events\/48473\/divisions\/4\/rankings?page=3","next_page_url":"https:\/\/www.robotevents.com\/api\/v2\/events\/48473\/divisions\/4\/rankings?page=2","path":"https:\/\/www.robotevents.com\/api\/v2\/events\/48473\/divisions\/4\/rankings","per_page":15,"prev_page_url":null,"to":15,"total":39},"data":[{"id":15585630,"event":{"id":48473,"name":"2023 CREATE U.S. Open Robotics Championship - VRC HIGH SCHOOL","code":"RE-VRC-22-8473"},"division":{"id":4,"name":"Green Division","code":null},"rank":39,"team":{"id":146774,"name":"70407R","code":null},"wins":0,"losses":1,"ties":0,"wp":0,"ap":0,"sp":68,"high_score":68,"average_points":68,"total_points":68},{"id":15585629,"event":{"id":48473,"name":"2023 CREATE U.S. Open Robotics Championship - VRC HIGH SCHOOL","code":"RE-VRC-22-8473"},"division":{"id":4,"name":"Green Division","code":null},"rank":38,"team":{"id":15067,"name":"1069E","code":null},"wins":0,"losses":1,"ties":0,"wp":0,"ap":0,"sp":72,"high_score":72,"average_points":72,"total_points":72},{"id":15585628,"event":{"id":48473,"name":"2023 CREATE U.S. Open Robotics Championship - VRC HIGH SCHOOL","code":"RE-VRC-22-8473"},"division":{"id":4,"name":"Green Division","code":null},"rank":37,"team":{"id":28231,"name":"603A","code":null},"wins":0,"losses":1,"ties":0,"wp":0,"ap":0,"sp":72,"high_score":72,"average_points":72,"total_points":72},{"id":15585627,"event":{"id":48473,"name":"2023 CREATE U.S. Open Robotics Championship - VRC HIGH SCHOOL","code":"RE-VRC-22-8473"},"division":{"id":4,"name":"Green Division","code":null},"rank":36,"team":{"id":139270,"name":"3141G","code":null},"wins":0,"losses":2,"ties":0,"wp":0,"ap":0,"sp":162,"high_score":162,"average_points":81,"total_points":162},{"id":15585626,"event":{"id":48473,"name":"2023 CREATE U.S. Open Robotics Championship - VRC HIGH SCHOOL","code":"RE-VRC-22-8473"},"division":{"id":4,"name":"Green Division","code":null},"rank":35,"team":{"id":114352,"name":"44366C","code":null},"wins":0,"losses":2,"ties":0,"wp":0,"ap":0,"sp":219,"high_score":141,"average_points":109.5,"total_points":219},{"id":15585625,"event":{"id":48473,"name":"2023 CREATE U.S. Open Robotics Championship - VRC HIGH SCHOOL","code":"RE-VRC-22-8473"},"division":{"id":4,"name":"Green Division","code":null},"rank":34,"team":{"id":139819,"name":"78215A","code":null},"wins":0,"losses":1,"ties":0,"wp":0,"ap":0,"sp":111,"high_score":111,"average_points":111,"total_points":111},{"id":15585624,"event":{"id":48473,"name":"2023 CREATE U.S. Open Robotics Championship - VRC HIGH SCHOOL","code":"RE-VRC-22-8473"},"division":{"id":4,"name":"Green Division","code":null},"rank":33,"team":{"id":73837,"name":"8110G","code":null},"wins":0,"losses":1,"ties":0,"wp":0,"ap":0,"sp":120,"high_score":120,"average_points":120,"total_points":120},{"id":15585623,"event":{"id":48473,"name":"2023 CREATE U.S. Open Robotics Championship - VRC HIGH SCHOOL","code":"RE-VRC-22-8473"},"division":{"id":4,"name":"Green Division","code":null},"rank":32,"team":{"id":50218,"name":"6891A","code":null},"wins":0,"losses":1,"ties":0,"wp":0,"ap":0,"sp":141,"high_score":141,"average_points":141,"total_points":141},{"id":15585622,"event":{"id":48473,"name":"2023 CREATE U.S. Open Robotics Championship - VRC HIGH SCHOOL","code":"RE-VRC-22-8473"},"division":{"id":4,"name":"Green Division","code":null},"rank":31,"team":{"id":118907,"name":"99751Z","code":null},"wins":0,"losses":1,"ties":0,"wp":0,"ap":0,"sp":158,"high_score":158,"average_points":158,"total_points":158},{"id":15585621,"event":{"id":48473,"name":"2023 CREATE U.S. Open Robotics Championship - VRC HIGH SCHOOL","code":"RE-VRC-22-8473"},"division":{"id":4,"name":"Green Division","code":null},"rank":30,"team":{"id":128378,"name":"17990E","code":null},"wins":0,"losses":2,"ties":0,"wp":0,"ap":10,"sp":171,"high_score":103,"average_points":85.5,"total_points":171},{"id":15585620,"event":{"id":48473,"name":"2023 CREATE U.S. Open Robotics Championship - VRC HIGH SCHOOL","code":"RE-VRC-22-8473"},"division":{"id":4,"name":"Green Division","code":null},"rank":29,"team":{"id":142343,"name":"1815F","code":null},"wins":0,"losses":2,"ties":0,"wp":0,"ap":10,"sp":234,"high_score":158,"average_points":117,"total_points":234},{"id":15585619,"event":{"id":48473,"name":"2023 CREATE U.S. Open Robotics Championship - VRC HIGH SCHOOL","code":"RE-VRC-22-8473"},"division":{"id":4,"name":"Green Division","code":null},"rank":28,"team":{"id":63240,"name":"400C","code":null},"wins":0,"losses":1,"ties":0,"wp":0,"ap":10,"sp":103,"high_score":103,"average_points":103,"total_points":103},{"id":15585618,"event":{"id":48473,"name":"2023 CREATE U.S. Open Robotics Championship - VRC HIGH SCHOOL","code":"RE-VRC-22-8473"},"division":{"id":4,"name":"Green Division","code":null},"rank":27,"team":{"id":99531,"name":"98377G","code":null},"wins":0,"losses":1,"ties":0,"wp":0,"ap":10,"sp":107,"high_score":107,"average_points":107,"total_points":107},{"id":15585617,"event":{"id":48473,"name":"2023 CREATE U.S. Open Robotics Championship - VRC HIGH SCHOOL","code":"RE-VRC-22-8473"},"division":{"id":4,"name":"Green Division","code":null},"rank":26,"team":{"id":37816,"name":"53A","code":null},"wins":0,"losses":2,"ties":0,"wp":1,"ap":0,"sp":258,"high_score":149,"average_points":129,"total_points":258},{"id":15585616,"event":{"id":48473,"name":"2023 CREATE U.S. Open Robotics Championship - VRC HIGH SCHOOL","code":"RE-VRC-22-8473"},"division":{"id":4,"name":"Green Division","code":null},"rank":25,"team":{"id":93415,"name":"1970Z","code":null},"wins":1,"losses":1,"ties":0,"wp":2,"ap":0,"sp":103,"high_score":134,"average_points":67,"total_points":134}]}