{"meta":{"current_page":1,"first_page_url":"https:\/\/www.robotevents.com\/api\/v2\/events\/48473\/divisions\/3\/rankings?page=1","from":1,"last_page":3,"last_page_url":"https:\/\/www.robotevents.com\/api\/v2\/events\/48473\/divisions\/3\/rankings?page=3","next_page_url":"https:\/\/www.robotevents.com\/api\/v2\/events\/48473\/divisions\/3\/rankings?page=2","path":"https:\/\/www.robotevents.com\/api\/v2\/events\/48473\/divisions\/3\/rankings","per_page":15,"prev_page_url":null,"to":15,"total":39},"data":[{"id":15585512,"event":{"id":48473,"name":"2023 CREATE U.S. Open Robotics Championship - VRC HIGH SCHOOL","code":"RE-VRC-22-8473"},"division":{"id":3,"name":"Orange Division","code":null},"rank":39,"team":{"id":5976,"name":"3018A","code":null},"wins":0,"losses":1,"ties":0,"wp":0,"ap":0,"sp":0,"high_score":0,"average_points":0,"total_points":0},{"id":15585511,"event":{"id":48473,"name":"2023 CREATE U.S. Open Robotics Championship - VRC HIGH SCHOOL","code":"RE-VRC-22-8473"},"division":{"id":3,"name":"Orange Division","code":null},"rank":38,"team":{"id":40093,"name":"1028A","code":null},"wins":0,"losses":1,"ties":0,"wp":0,"ap":0,"sp":0,"high_score":0,"average_points":0,"total_points":0},{"id":15585510,"event":{"id":48473,"name":"2023 CREATE U.S. Open Robotics Championship - VRC HIGH SCHOOL","code":"RE-VRC-22-8473"},"division":{"id":3,"name":"Orange Division","code":null},"rank":37,"team":{"id":53189,"name":"7135C","code":null},"wins":0,"losses":1,"ties":0,"wp":0,"ap":0,"sp":32,"high_score":32,"average_points":32,"total_points":32},{"id":15585509,"event":{"id":48473,"name":"2023 CREATE U.S. Open Robotics Championship - VRC HIGH SCHOOL","code":"RE-VRC-22-8473"},"division":{"id":3,"name":"Orange Division","code":null},"rank":36,"team":{"id":107633,"name":"74177H","code":null},"wins":0,"losses":1,"ties":0,"wp":0,"ap":0,"sp":32,"high_score":32,"average_points":32,"total_points":32},{"id":15585508,"event":{"id":48473,"name":"2023 CREATE U.S. Open Robotics Championship - VRC HIGH SCHOOL","code":"RE-VRC-22-8473"},"division":{"id":3,"name":"Orange Division","code":null},"rank":35,"team":{"id":141825,"name":"91416X","code":null},"wins":0,"losses":1,"ties":0,"wp":0,"ap":0,"sp":38,"high_score":38,"average_points":38,"total_points":38},{"id":15585507,"event":{"id":48473,"name":"2023 CREATE U.S. Open Robotics Championship - VRC HIGH SCHOOL","code":"RE-VRC-22-8473"},"division":{"id":3,"name":"Orange Division","code":null},"rank":34,"team":{"id":111400,"name":"3303G","code":null},"wins":0,"losses":1,"ties":0,"wp":0,"ap":0,"sp":38,"high_score":38,"average_points":38,"total_points":38},{"id":15585506,"event":{"id":48473,"name":"2023 CREATE U.S. Open Robotics Championship - VRC HIGH SCHOOL","code":"RE-VRC-22-8473"},"division":{"id":3,"name":"Orange Division","code":null},"rank":33,"team":{"id":112607,"name":"40684D","code":null},"wins":0,"losses":2,"ties":0,"wp":0,"ap":0,"sp":109,"high_score":73,"average_points":54.5,"total_points":109},{"id":15585505,"event":{"id":48473,"name":"2023 CREATE U.S. Open Robotics Championship - VRC HIGH SCHOOL","code":"RE-VRC-22-8473"},"division":{"id":3,"name":"Orange Division","code":null},"rank":32,"team":{"id":65900,"name":"99319A","code":null},"wins":0,"losses":1,"ties":0,"wp":0,"ap":0,"sp":60,"high_score":60,"average_points":60,"total_points":60},{"id":15585504,"event":{"id":48473,"name":"2023 CREATE U.S. Open Robotics Championship - VRC HIGH SCHOOL","code":"RE-VRC-22-8473"},"division":{"id":3,"name":"Orange Division","code":null},"rank":31,"team":{"id":496,"name":"687B","code":null},"wins":0,"losses":2,"ties":0,"wp":0,"ap":0,"sp":132,"high_score":96,"average_points":66,"total_points":132},{"id":15585503,"event":{"id":48473,"name":"2023 CREATE U.S. Open Robotics Championship - VRC HIGH SCHOOL","code":"RE-VRC-22-8473"},"division":{"id":3,"name":"Orange Division","code":null},"rank":30,"team":{"id":130833,"name":"99751Y","code":null},"wins":0,"losses":1,"ties":0,"wp":0,"ap":0,"sp":72,"high_score":72,"average_points":72,"total_points":72},{"id":15585502,"event":{"id":48473,"name":"2023 CREATE U.S. Open Robotics Championship - VRC HIGH SCHOOL","code":"RE-VRC-22-8473"},"division":{"id":3,"name":"Orange Division","code":null},"rank":29,"team":{"id":124444,"name":"9257X","code":null},"wins":0,"losses":1,"ties":0,"wp":0,"ap":0,"sp":73,"high_score":73,"average_points":73,"total_points":73},{"id":15585501,"event":{"id":48473,"name":"2023 CREATE U.S. Open Robotics Championship - VRC HIGH SCHOOL","code":"RE-VRC-22-8473"},"division":{"id":3,"name":"Orange Division","code":null},"rank":28,"team":{"id":76579,"name":"23880A","code":null},"wins":0,"losses":1,"ties":0,"wp":0,"ap":0,"sp":78,"high_score":78,"average_points":78,"total_points":78},{"id":15585500,"event":{"id":48473,"name":"2023 CREATE U.S. Open Robotics Championship - VRC HIGH SCHOOL","code":"RE-VRC-22-8473"},"division":{"id":3,"name":"Orange Division","code":null},"rank":27,"team":{"id":93353,"name":"197D","code":null},"wins":0,"losses":1,"ties":0,"wp":0,"ap":0,"sp":81,"high_score":81,"average_points":81,"total_points":81},{"id":15585499,"event":{"id":48473,"name":"2023 CREATE U.S. Open Robotics Championship - VRC HIGH SCHOOL","code":"RE-VRC-22-8473"},"division":{"id":3,"name":"Orange Division","code":null},"rank":26,"team":{"id":45280,"name":"7686A","code":null},"wins":0,"losses":1,"ties":0,"wp":0,"ap":0,"sp":81,"high_score":81,"average_points":81,"total_points":81},{"id":15585498,"event":{"id":48473,"name":"2023 CREATE U.S. Open Robotics Championship - VRC HIGH SCHOOL","code":"RE-VRC-22-8473"},"division":{"id":3,"name":"Orange Division","code":null},"rank":25,"team":{"id":66413,"name":"3948A","code":null},"wins":0,"losses":2,"ties":0,"wp":0,"ap":0,"sp":188,"high_score":128,"average_points":94,"total_points":188}]}