{"meta":{"current_page":1,"first_page_url":"https:\/\/www.robotevents.com\/api\/v2\/events\/48473\/divisions\/1\/rankings?page=1","from":1,"last_page":3,"last_page_url":"https:\/\/www.robotevents.com\/api\/v2\/events\/48473\/divisions\/1\/rankings?page=3","next_page_url":"https:\/\/www.robotevents.com\/api\/v2\/events\/48473\/divisions\/1\/rankings?page=2","path":"https:\/\/www.robotevents.com\/api\/v2\/events\/48473\/divisions\/1\/rankings","per_page":15,"prev_page_url":null,"to":15,"total":40},"data":[{"id":15585591,"event":{"id":48473,"name":"2023 CREATE U.S. Open Robotics Championship - VRC HIGH SCHOOL","code":"RE-VRC-22-8473"},"division":{"id":1,"name":"Red Division","code":null},"rank":40,"team":{"id":15097,"name":"2398A","code":null},"wins":0,"losses":1,"ties":0,"wp":0,"ap":0,"sp":0,"high_score":0,"average_points":0,"total_points":0},{"id":15585590,"event":{"id":48473,"name":"2023 CREATE U.S. Open Robotics Championship - VRC HIGH SCHOOL","code":"RE-VRC-22-8473"},"division":{"id":1,"name":"Red Division","code":null},"rank":39,"team":{"id":76580,"name":"23880B","code":null},"wins":0,"losses":1,"ties":0,"wp":0,"ap":0,"sp":0,"high_score":0,"average_points":0,"total_points":0},{"id":15585589,"event":{"id":48473,"name":"2023 CREATE U.S. Open Robotics Championship - VRC HIGH SCHOOL","code":"RE-VRC-22-8473"},"division":{"id":1,"name":"Red Division","code":null},"rank":38,"team":{"id":97149,"name":"1970G","code":null},"wins":0,"losses":2,"ties":0,"wp":0,"ap":0,"sp":92,"high_score":92,"average_points":46,"total_points":92},{"id":15585588,"event":{"id":48473,"name":"2023 CREATE U.S. Open Robotics Championship - VRC HIGH SCHOOL","code":"RE-VRC-22-8473"},"division":{"id":1,"name":"Red Division","code":null},"rank":37,"team":{"id":124726,"name":"77788A","code":null},"wins":0,"losses":2,"ties":0,"wp":0,"ap":0,"sp":138,"high_score":92,"average_points":69,"total_points":138},{"id":15585587,"event":{"id":48473,"name":"2023 CREATE U.S. Open Robotics Championship - VRC HIGH SCHOOL","code":"RE-VRC-22-8473"},"division":{"id":1,"name":"Red Division","code":null},"rank":36,"team":{"id":84714,"name":"13444B","code":null},"wins":0,"losses":1,"ties":0,"wp":0,"ap":0,"sp":79,"high_score":79,"average_points":79,"total_points":79},{"id":15585586,"event":{"id":48473,"name":"2023 CREATE U.S. Open Robotics Championship - VRC HIGH SCHOOL","code":"RE-VRC-22-8473"},"division":{"id":1,"name":"Red Division","code":null},"rank":35,"team":{"id":49636,"name":"6844B","code":null},"wins":0,"losses":2,"ties":0,"wp":0,"ap":0,"sp":168,"high_score":109,"average_points":84,"total_points":168},{"id":15585585,"event":{"id":48473,"name":"2023 CREATE U.S. Open Robotics Championship - VRC HIGH SCHOOL","code":"RE-VRC-22-8473"},"division":{"id":1,"name":"Red Division","code":null},"rank":34,"team":{"id":122631,"name":"37334A","code":null},"wins":0,"losses":1,"ties":0,"wp":0,"ap":0,"sp":109,"high_score":109,"average_points":109,"total_points":109},{"id":15585584,"event":{"id":48473,"name":"2023 CREATE U.S. Open Robotics Championship - VRC HIGH SCHOOL","code":"RE-VRC-22-8473"},"division":{"id":1,"name":"Red Division","code":null},"rank":33,"team":{"id":60016,"name":"355S","code":null},"wins":0,"losses":1,"ties":0,"wp":0,"ap":0,"sp":113,"high_score":113,"average_points":113,"total_points":113},{"id":15585583,"event":{"id":48473,"name":"2023 CREATE U.S. Open Robotics Championship - VRC HIGH SCHOOL","code":"RE-VRC-22-8473"},"division":{"id":1,"name":"Red Division","code":null},"rank":32,"team":{"id":136256,"name":"99499A","code":null},"wins":0,"losses":1,"ties":0,"wp":0,"ap":0,"sp":113,"high_score":113,"average_points":113,"total_points":113},{"id":15585582,"event":{"id":48473,"name":"2023 CREATE U.S. Open Robotics Championship - VRC HIGH SCHOOL","code":"RE-VRC-22-8473"},"division":{"id":1,"name":"Red Division","code":null},"rank":31,"team":{"id":64630,"name":"8110C","code":null},"wins":0,"losses":1,"ties":0,"wp":0,"ap":0,"sp":118,"high_score":118,"average_points":118,"total_points":118},{"id":15585581,"event":{"id":48473,"name":"2023 CREATE U.S. Open Robotics Championship - VRC HIGH SCHOOL","code":"RE-VRC-22-8473"},"division":{"id":1,"name":"Red Division","code":null},"rank":30,"team":{"id":129763,"name":"74177M","code":null},"wins":0,"losses":1,"ties":0,"wp":0,"ap":0,"sp":124,"high_score":124,"average_points":124,"total_points":124},{"id":15585580,"event":{"id":48473,"name":"2023 CREATE U.S. Open Robotics Championship - VRC HIGH SCHOOL","code":"RE-VRC-22-8473"},"division":{"id":1,"name":"Red Division","code":null},"rank":29,"team":{"id":56889,"name":"5069X","code":null},"wins":0,"losses":2,"ties":0,"wp":0,"ap":0,"sp":288,"high_score":164,"average_points":144,"total_points":288},{"id":15585579,"event":{"id":48473,"name":"2023 CREATE U.S. Open Robotics Championship - VRC HIGH SCHOOL","code":"RE-VRC-22-8473"},"division":{"id":1,"name":"Red Division","code":null},"rank":28,"team":{"id":63804,"name":"1049C","code":null},"wins":0,"losses":2,"ties":0,"wp":0,"ap":10,"sp":217,"high_score":138,"average_points":108.5,"total_points":217},{"id":15585578,"event":{"id":48473,"name":"2023 CREATE U.S. Open Robotics Championship - VRC HIGH SCHOOL","code":"RE-VRC-22-8473"},"division":{"id":1,"name":"Red Division","code":null},"rank":27,"team":{"id":54832,"name":"2501J","code":null},"wins":0,"losses":2,"ties":0,"wp":0,"ap":10,"sp":256,"high_score":138,"average_points":128,"total_points":256},{"id":15585577,"event":{"id":48473,"name":"2023 CREATE U.S. Open Robotics Championship - VRC HIGH SCHOOL","code":"RE-VRC-22-8473"},"division":{"id":1,"name":"Red Division","code":null},"rank":26,"team":{"id":140003,"name":"79912C","code":null},"wins":0,"losses":1,"ties":0,"wp":0,"ap":10,"sp":141,"high_score":141,"average_points":141,"total_points":141}]}